Thu Apr 19 04:25:05 CEST 2018
Preloading tcmalloc_minimal.so
Athena               INFO including file "AthenaCommon/Preparation.py"
Athena               INFO including file "AthenaCommon/Bootstrap.py"
Athena               INFO including file "AthenaCommon/Atlas.UnixStandardJob.py"
Athena               INFO executing ROOT6Setup
Athena               INFO including file "AthenaCommon/Execution.py"
Athena               INFO including file "AthenaPoolExampleAlgorithms/AthenaPoolExample_AMetaJobOptions.py"
Py:ConfigurableDb    INFO Read module info for 5276 configurables from 4 genConfDb files
Py:ConfigurableDb    INFO No duplicates have been found: that's good !
Athena               INFO including file "AthenaCommon/runbatch.py"
ApplicationMgr       INFO Updating Gaudi::PluginService::SetDebug(level) to level= 'PluginDebugLevel':0
ApplicationMgr    SUCCESS 
====================================================================================================================================
                                                   Welcome to ApplicationMgr (GaudiCoreSvc v4r1)
                                          running on lxplus034.cern.ch on Thu Apr 19 04:25:15 2018
====================================================================================================================================
ApplicationMgr       INFO Successfully loaded modules : AthenaServices
ApplicationMgr       INFO Application Manager Configured successfully
ApplicationMgr       INFO Updating Gaudi::PluginService::SetDebug(level) to level= 'PluginDebugLevel':0
StatusCodeSvc        INFO initialize
AthDictLoaderSvc     INFO in initialize...
AthDictLoaderSvc     INFO acquired Dso-registry
ClassIDSvc           INFO  getRegistryEntries: read 2295 CLIDRegistry entries for module ALL
ChronoStatSvc        INFO  Number of skipped events for MemStat-1
CoreDumpSvc          INFO install f-a-t-a-l handler... (flag = -1)
AthenaEventLoopMgr   INFO Initializing AthenaEventLoopMgr - package version AthenaServices-00-00-00
AthMasterSeq         INFO Member list: AthSequencer/AthAlgSeq, AthSequencer/AthOutSeq, AthSequencer/AthRegSeq
AthAlgSeq            INFO Member list: AthPoolEx::WriteData/WriteData, AthPoolEx::WriteCond/WriteCond
WriteData           DEBUG Property update for OutputLevel : new value = 2
WriteData            INFO in initialize()
WriteData           DEBUG input handles: 0
WriteData           DEBUG output handles: 0
WriteData           DEBUG Data Deps for WriteData
WriteCond            INFO in initialize()
MetaDataSvc          INFO Initializing MetaDataSvc - package version AthenaServices-00-00-00
AthenaPoolCnvSvc    DEBUG Property update for OutputLevel : new value = 2
AthenaPoolCnvSvc     INFO Initializing AthenaPoolCnvSvc - package version AthenaPoolCnvSvc-00-00-00
PoolSvc             DEBUG Property update for OutputLevel : new value = 2
PoolSvc              INFO Initializing PoolSvc - package version PoolSvc-00-00-00
PoolSvc              INFO io_register[PoolSvc](xmlcatalog_file:Catalog2.xml) [ok]
PoolSvc              INFO Set connectionsvc retry/timeout/IDLE timeout to  'ConnectionRetrialPeriod':300/ 'ConnectionRetrialTimeOut':3600/ 'ConnectionTimeOut':5 seconds with connection cleanup disabled
PoolSvc              INFO Frontier compression level set to 5
DBReplicaSvc         INFO Frontier server at (serverurl=http://atlasfrontier-local.cern.ch:8000/atlr)(serverurl=http://atlasfrontier-ai.cern.ch:8000/atlr)(serverurl=http://lcgft-atlas.gridpp.rl.ac.uk:3128/frontierATLAS)(serverurl=http://ccfrontier.in2p3.fr:23128/ccin2p3-AtlasFrontier)(proxyurl=http://ca-proxy.cern.ch:3128)(proxyurl=http://ca-proxy-meyrin.cern.ch:3128)(proxyurl=http://ca-proxy-wigner.cern.ch:3128) will be considered for COOL data
DBReplicaSvc         INFO Read replica configuration from /cvmfs/atlas-nightlies.cern.ch/repo/sw/21.0/2018-04-17T2156/Athena/21.0.69/InstallArea/x86_64-slc6-gcc62-opt/share/dbreplica.config
DBReplicaSvc         INFO Total of 10 servers found for host lxplus034.cern.ch [ATLF ATLAS_COOLPROD atlas_dd ATLAS_CONFIG INT8R INTR ATONR_COOL ATONR_CONF DEVDB11 ATLF ]
PoolSvc              INFO Successfully setup replica sorting algorithm
PoolSvc             DEBUG OutputLevel is 2
PoolSvc              INFO Setting up APR FileCatalog and Streams
PoolSvc              INFO POOL WriteCatalog is xmlcatalog_file:Catalog2.xml
XMLFileCatalog Info Connecting to the catalog
PoolXMLFileCatalog Info Xerces-c initialization Number 0
ProxyProviderSvc     INFO Initializing ProxyProviderSvc - package version SGComps-00-00-00
Stream1.Stream1...  DEBUG Property update for OutputLevel : new value = 2
ClassIDSvc           INFO  getRegistryEntries: read 2130 CLIDRegistry entries for module ALL
Stream1             DEBUG Property update for OutputLevel : new value = 2
Stream1             DEBUG In initialize 
Stream1             DEBUG Found IDecisionSvc.
DecisionSvc          INFO Inserting stream: Stream1 with no Algs
Stream1             DEBUG End initialize 
Stream1             DEBUG In initialize
Stream1             DEBUG Found StoreGateSvc store.
Stream1             DEBUG Found MetaDataStore store.
OutputStreamSeq...   INFO Initializing OutputStreamSequencerSvc - package version AthenaServices-00-00-00
ClassIDSvc           INFO  getRegistryEntries: read 262 CLIDRegistry entries for module ALL
Stream1.Stream1...  DEBUG Property update for OutputLevel : new value = 2
Stream1.Stream1...   INFO Initializing Stream1.Stream1Tool - package version OutputStreamAthenaPool-00-00-00
Stream1.Stream1...   INFO streamProperty ProcessingTag = Stream1
Stream1.Stream1...  DEBUG Property update for OutputLevel : new value = 2
Stream1.Stream1...   INFO Initializing Stream1.Stream1_MakeEventStreamInfo - package version OutputStreamAthenaPool-00-00-00
Stream1              INFO Found HelperTools = PrivateToolHandleArray(['MakeEventStreamInfo/Stream1_MakeEventStreamInfo'])
Stream1              INFO Data output: ROOTTREE:SimplePoolFile5.root
Stream1              INFO I/O reinitialization...
Stream1             DEBUG End initialize
Stream1             DEBUG input handles: 0
Stream1             DEBUG output handles: 0
Stream1             DEBUG Registering all Tools in ToolHandleArray HelperTools
Stream1             DEBUG Adding private ToolHandle tool Stream1.Stream1_MakeEventStreamInfo (MakeEventStreamInfo) from ToolHandleArray HelperTools
Stream1             DEBUG Adding private ToolHandle tool Stream1.Stream1Tool (AthenaPoolOutputStreamTool)
Stream1             DEBUG Data Deps for Stream1
HistogramPersis...WARNING Histograms saving not required.
EventSelector        INFO  Enter McEventSelector Initialization 
AthenaEventLoopMgr   INFO Setup EventSelector service EventSelector
ActiveStoreSvc       INFO Initializing ActiveStoreSvc - package version StoreGate-00-00-00
ApplicationMgr       INFO Application Manager Initialized successfully
ApplicationMgr       INFO Application Manager Started successfully
EventPersistenc...   INFO Added successfully Conversion service:McCnvSvc
AthenaEventLoopMgr   INFO   ===>>>  start of run 0    <<<===
AthenaEventLoopMgr   INFO   ===>>>  start processing event #20, run #0 0 events processed so far  <<<===
WriteData           DEBUG in execute()
WriteData            INFO EventInfo event: 20  run: 0
WriteData            INFO registered all data
WriteCond            INFO Hit x = 2001.23 y = -2.345 z = -1773.33 detector = DummyHitDetector
WriteCond            INFO Hit x = 2004.44 y = -8.0239 z = -1905.27 detector = DummyHitDetector
WriteCond            INFO Hit x = 2007.65 y = -13.7028 z = -1929.77 detector = DummyHitDetector
WriteCond            INFO Hit x = 2010.86 y = -19.3817 z = -1940.09 detector = DummyHitDetector
WriteCond            INFO Hit x = 2014.07 y = -25.0606 z = -1945.77 detector = DummyHitDetector
WriteCond            INFO Hit x = 2017.28 y = -30.7395 z = -1949.38 detector = DummyHitDetector
WriteCond            INFO Hit x = 2020.49 y = -36.4184 z = -1951.86 detector = DummyHitDetector
WriteCond            INFO Hit x = 2023.7 y = -42.0973 z = -1953.68 detector = DummyHitDetector
WriteCond            INFO Hit x = 2026.91 y = -47.7762 z = -1955.07 detector = DummyHitDetector
WriteCond            INFO Hit x = 2030.12 y = -53.4551 z = -1956.17 detector = DummyHitDetector
WriteCond            INFO registered all data
DbSession Info     Open     DbSession    
Domain[ROOT_All] Info >   Access   DbDomain     UPDATE    [ROOT_All] 
AthenaPoolCnvSvc    DEBUG setAttribute TREE_MAX_SIZE to 1099511627776L
AthenaPoolCnvSvc    DEBUG setAttribute DEFAULT_SPLITLEVEL to 0
AthenaPoolCnvSvc    DEBUG setAttribute STREAM_MEMBER_WISE to 1
AthenaPoolCnvSvc    DEBUG setAttribute DEFAULT_BUFFERSIZE to 32000
Domain[ROOT_All] Info ->  Access   DbDatabase   UPDATE    [ROOT_All] ????
Domain[ROOT_All] Info                           SimplePoolFile5.root
SimplePoolFile5.root Debug --> Access   DbContainer  CREA/UPDA [ROOT_All] ##Shapes
???? Debug Opened container ##Shapes of type ROOT_Tree
SimplePoolFile5.root Debug --->Reading Shape[0 , ????]: [1 Column(s)]
SimplePoolFile5.root Debug ---->[0]:EventInfo_p4 Typ:EventInfo_p4 [21] Size:0 Offset:0 #Elements:1
SimplePoolFile5.root Debug --->Reading Shape[1 , ????]: [1 Column(s)]
SimplePoolFile5.root Debug ---->[0]:ExampleHitContainer_p1 Typ:ExampleHitContainer_p1 [21] Size:0 Offset:0 #Elements:1
SimplePoolFile5.root Debug --->Reading Shape[2 , ????]: [1 Column(s)]
SimplePoolFile5.root Debug ---->[0]:DataHeaderForm_p5 Typ:DataHeaderForm_p5 [21] Size:0 Offset:0 #Elements:1
SimplePoolFile5.root Debug --->Reading Shape[3 , ????]: [1 Column(s)]
SimplePoolFile5.root Debug ---->[0]:DataHeader_p5 Typ:DataHeader_p5 [21] Size:0 Offset:0 #Elements:1
SimplePoolFile5.root Debug --->Reading Shape[4 , ????]: [1 Column(s)]
SimplePoolFile5.root Debug ---->[0]:EventStreamInfo_p3 Typ:EventStreamInfo_p3 [21] Size:0 Offset:0 #Elements:1
##Shapes Debug No objects passing selection criteria... Container has 5 Entries in total.
SimplePoolFile5.root Debug --> Access   DbContainer  CREA/UPDA [ROOT_All] ##Links
???? Debug Opened container ##Links of type ROOT_Tree
SimplePoolFile5.root Debug --->Reading Assoc:????/##Params [200]  (2 , ffffffff)
SimplePoolFile5.root Debug ---->ClassID:????
SimplePoolFile5.root Debug --->Reading Assoc:????/CollectionTree(EventInfo_p4/McEventInfo) [202]  (3 , ffffffff)
SimplePoolFile5.root Debug ---->ClassID:????
SimplePoolFile5.root Debug --->Reading Assoc:????/CollectionTree(ExampleHitContainer_p1/MyHits) [202]  (4 , ffffffff)
SimplePoolFile5.root Debug ---->ClassID:????
SimplePoolFile5.root Debug --->Reading Assoc:????/POOLContainerForm(DataHeaderForm) [202]  (5 , ffffffff)
SimplePoolFile5.root Debug ---->ClassID:????
SimplePoolFile5.root Debug --->Reading Assoc:????/POOLContainer(DataHeader) [202]  (6 , ffffffff)
SimplePoolFile5.root Debug ---->ClassID:????
SimplePoolFile5.root Debug --->Reading Assoc:????/POOLContainer(basic/DataHeader) [202]  (7 , ffffffff)
SimplePoolFile5.root Debug ---->ClassID:????
SimplePoolFile5.root Debug --->Reading Assoc:????/MetaData(ExampleHitContainer_p1/PedestalWriteData) [202]  (8 , ffffffff)
SimplePoolFile5.root Debug ---->ClassID:????
SimplePoolFile5.root Debug --->Reading Assoc:????/MetaData(EventStreamInfo_p3/Stream1) [202]  (9 , ffffffff)
SimplePoolFile5.root Debug ---->ClassID:????
SimplePoolFile5.root Debug --->Reading Assoc:????/MetaDataHdrForm(DataHeaderForm) [202]  (a , ffffffff)
SimplePoolFile5.root Debug ---->ClassID:????
SimplePoolFile5.root Debug --->Reading Assoc:????/MetaDataHdr(DataHeader) [202]  (b , ffffffff)
SimplePoolFile5.root Debug ---->ClassID:????
##Links Debug No objects passing selection criteria... Container has 10 Entries in total.
SimplePoolFile5.root Debug --> Access   DbContainer  CREA/UPDA [ROOT_All] ##Params
???? Debug Opened container ##Params of type ROOT_Tree
SimplePoolFile5.root Debug --->Reading Param:FID=[????]
SimplePoolFile5.root Debug --->Reading Param:PFN=[SimplePoolFile5.root]
SimplePoolFile5.root Debug --->Reading Param:POOL_VSN=[1.1]
SimplePoolFile5.root Debug --->Reading Param:FORMAT_VSN=[1.1]
##Params Debug No objects passing selection criteria... Container has 4 Entries in total.
AthenaPoolCnvSvc    DEBUG setAttribute CONTAINER_SPLITLEVEL to 99 for db: SimplePoolFile5.root and cont: TTree=POOLContainerForm(DataHeaderForm)
ClassIDSvc           INFO  getRegistryEntries: read 213 CLIDRegistry entries for module ALL
Stream1             DEBUG addItemObjects(2101,"*") called
Stream1             DEBUG            Key:*
Stream1             DEBUG  Added object 2101,"McEventInfo"
Stream1             DEBUG addItemObjects(9102,"MyHits") called
Stream1             DEBUG            Key:MyHits
Stream1             DEBUG  Added object 9102,"MyHits"
SimplePoolFile5.root Debug --> Access   DbContainer  CREA/UPDA [ROOT_Tree] CollectionTree(EventInfo_p4/McEventInfo)
???? Debug Opened container CollectionTree(EventInfo_p4/McEventInfo) of type ROOT_Tree
SimplePoolFile5.root Debug --> Access   DbContainer  CREA/UPDA [ROOT_Tree] CollectionTree(ExampleHitContainer_p1/MyHits)
???? Debug Opened container CollectionTree(ExampleHitContainer_p1/MyHits) of type ROOT_Tree
SimplePoolFile5.root Debug --> Access   DbContainer  CREA/UPDA [ROOT_Tree] POOLContainerForm(DataHeaderForm)
???? Debug Opened container POOLContainerForm(DataHeaderForm) of type ROOT_Tree
SimplePoolFile5.root Debug --> Access   DbContainer  CREA/UPDA [ROOT_Tree] POOLContainer(DataHeader)
???? Debug Opened container POOLContainer(DataHeader) of type ROOT_Tree
SimplePoolFile5.root Debug --> Access   DbContainer  CREA/UPDA [ROOT_Tree] POOLContainer(basic/DataHeader)
???? Debug Opened container POOLContainer(basic/DataHeader) of type ROOT_Tree
AthenaPoolCnvSvc    DEBUG setAttribute BRANCH_BASKET_SIZE to 256000 for db: SimplePoolFile5.root and cont: POOLContainer(DataHeader)
AthenaPoolCnvSvc    DEBUG setAttribute BRANCH_BASKET_SIZE to 1024000 for db: SimplePoolFile5.root and cont: POOLContainerForm(DataHeaderForm)
AthenaEventLoopMgr   INFO   ===>>>  done processing event #20, run #0 1 events processed so far  <<<===
AthenaEventLoopMgr   INFO   ===>>>  start processing event #21, run #0 1 events processed so far  <<<===
WriteData           DEBUG in execute()
WriteData            INFO EventInfo event: 21  run: 0
WriteData            INFO registered all data
WriteCond            INFO Hit x = 2101.23 y = -2.345 z = -1873.33 detector = DummyHitDetector
WriteCond            INFO Hit x = 2104.44 y = -8.0239 z = -2005.27 detector = DummyHitDetector
WriteCond            INFO Hit x = 2107.65 y = -13.7028 z = -2029.77 detector = DummyHitDetector
WriteCond            INFO Hit x = 2110.86 y = -19.3817 z = -2040.09 detector = DummyHitDetector
WriteCond            INFO Hit x = 2114.07 y = -25.0606 z = -2045.77 detector = DummyHitDetector
WriteCond            INFO Hit x = 2117.28 y = -30.7395 z = -2049.38 detector = DummyHitDetector
WriteCond            INFO Hit x = 2120.49 y = -36.4184 z = -2051.86 detector = DummyHitDetector
WriteCond            INFO Hit x = 2123.7 y = -42.0973 z = -2053.68 detector = DummyHitDetector
WriteCond            INFO Hit x = 2126.91 y = -47.7762 z = -2055.07 detector = DummyHitDetector
WriteCond            INFO Hit x = 2130.12 y = -53.4551 z = -2056.17 detector = DummyHitDetector
WriteCond            INFO registered all data
ClassIDSvc           INFO  getRegistryEntries: read 28 CLIDRegistry entries for module ALL
Stream1             DEBUG addItemObjects(2101,"*") called
Stream1             DEBUG            Key:*
Stream1             DEBUG  Added object 2101,"McEventInfo"
Stream1             DEBUG addItemObjects(9102,"MyHits") called
Stream1             DEBUG            Key:MyHits
Stream1             DEBUG  Added object 9102,"MyHits"
AthenaEventLoopMgr   INFO   ===>>>  done processing event #21, run #0 2 events processed so far  <<<===
AthenaEventLoopMgr   INFO   ===>>>  start processing event #22, run #0 2 events processed so far  <<<===
WriteData           DEBUG in execute()
WriteData            INFO EventInfo event: 22  run: 0
WriteData            INFO registered all data
WriteCond            INFO Hit x = 2201.23 y = -2.345 z = -1973.33 detector = DummyHitDetector
WriteCond            INFO Hit x = 2204.44 y = -8.0239 z = -2105.27 detector = DummyHitDetector
WriteCond            INFO Hit x = 2207.65 y = -13.7028 z = -2129.77 detector = DummyHitDetector
WriteCond            INFO Hit x = 2210.86 y = -19.3817 z = -2140.09 detector = DummyHitDetector
WriteCond            INFO Hit x = 2214.07 y = -25.0606 z = -2145.77 detector = DummyHitDetector
WriteCond            INFO Hit x = 2217.28 y = -30.7395 z = -2149.38 detector = DummyHitDetector
WriteCond            INFO Hit x = 2220.49 y = -36.4184 z = -2151.86 detector = DummyHitDetector
WriteCond            INFO Hit x = 2223.7 y = -42.0973 z = -2153.68 detector = DummyHitDetector
WriteCond            INFO Hit x = 2226.91 y = -47.7762 z = -2155.07 detector = DummyHitDetector
WriteCond            INFO Hit x = 2230.12 y = -53.4551 z = -2156.17 detector = DummyHitDetector
WriteCond            INFO registered all data
Stream1             DEBUG addItemObjects(2101,"*") called
Stream1             DEBUG            Key:*
Stream1             DEBUG  Added object 2101,"McEventInfo"
Stream1             DEBUG addItemObjects(9102,"MyHits") called
Stream1             DEBUG            Key:MyHits
Stream1             DEBUG  Added object 9102,"MyHits"
AthenaEventLoopMgr   INFO   ===>>>  done processing event #22, run #0 3 events processed so far  <<<===
AthenaEventLoopMgr   INFO   ===>>>  start processing event #23, run #0 3 events processed so far  <<<===
WriteData           DEBUG in execute()
WriteData            INFO EventInfo event: 23  run: 0
WriteData            INFO registered all data
WriteCond            INFO Hit x = 2301.23 y = -2.345 z = -2073.33 detector = DummyHitDetector
WriteCond            INFO Hit x = 2304.44 y = -8.0239 z = -2205.27 detector = DummyHitDetector
WriteCond            INFO Hit x = 2307.65 y = -13.7028 z = -2229.77 detector = DummyHitDetector
WriteCond            INFO Hit x = 2310.86 y = -19.3817 z = -2240.09 detector = DummyHitDetector
WriteCond            INFO Hit x = 2314.07 y = -25.0606 z = -2245.77 detector = DummyHitDetector
WriteCond            INFO Hit x = 2317.28 y = -30.7395 z = -2249.38 detector = DummyHitDetector
WriteCond            INFO Hit x = 2320.49 y = -36.4184 z = -2251.86 detector = DummyHitDetector
WriteCond            INFO Hit x = 2323.7 y = -42.0973 z = -2253.68 detector = DummyHitDetector
WriteCond            INFO Hit x = 2326.91 y = -47.7762 z = -2255.07 detector = DummyHitDetector
WriteCond            INFO Hit x = 2330.12 y = -53.4551 z = -2256.17 detector = DummyHitDetector
WriteCond            INFO registered all data
Stream1             DEBUG addItemObjects(2101,"*") called
Stream1             DEBUG            Key:*
Stream1             DEBUG  Added object 2101,"McEventInfo"
Stream1             DEBUG addItemObjects(9102,"MyHits") called
Stream1             DEBUG            Key:MyHits
Stream1             DEBUG  Added object 9102,"MyHits"
AthenaEventLoopMgr   INFO   ===>>>  done processing event #23, run #0 4 events processed so far  <<<===
AthenaEventLoopMgr   INFO   ===>>>  start processing event #24, run #0 4 events processed so far  <<<===
WriteData           DEBUG in execute()
WriteData            INFO EventInfo event: 24  run: 0
WriteData            INFO registered all data
WriteCond            INFO Hit x = 2401.23 y = -2.345 z = -2173.33 detector = DummyHitDetector
WriteCond            INFO Hit x = 2404.44 y = -8.0239 z = -2305.27 detector = DummyHitDetector
WriteCond            INFO Hit x = 2407.65 y = -13.7028 z = -2329.77 detector = DummyHitDetector
WriteCond            INFO Hit x = 2410.86 y = -19.3817 z = -2340.09 detector = DummyHitDetector
WriteCond            INFO Hit x = 2414.07 y = -25.0606 z = -2345.77 detector = DummyHitDetector
WriteCond            INFO Hit x = 2417.28 y = -30.7395 z = -2349.38 detector = DummyHitDetector
WriteCond            INFO Hit x = 2420.49 y = -36.4184 z = -2351.86 detector = DummyHitDetector
WriteCond            INFO Hit x = 2423.7 y = -42.0973 z = -2353.68 detector = DummyHitDetector
WriteCond            INFO Hit x = 2426.91 y = -47.7762 z = -2355.07 detector = DummyHitDetector
WriteCond            INFO Hit x = 2430.12 y = -53.4551 z = -2356.17 detector = DummyHitDetector
WriteCond            INFO registered all data
Stream1             DEBUG addItemObjects(2101,"*") called
Stream1             DEBUG            Key:*
Stream1             DEBUG  Added object 2101,"McEventInfo"
Stream1             DEBUG addItemObjects(9102,"MyHits") called
Stream1             DEBUG            Key:MyHits
Stream1             DEBUG  Added object 9102,"MyHits"
AthenaEventLoopMgr   INFO   ===>>>  done processing event #24, run #0 5 events processed so far  <<<===
AthenaEventLoopMgr   INFO   ===>>>  start processing event #25, run #0 5 events processed so far  <<<===
WriteData           DEBUG in execute()
WriteData            INFO EventInfo event: 25  run: 0
WriteData            INFO registered all data
WriteCond            INFO Hit x = 2501.23 y = -2.345 z = -2273.33 detector = DummyHitDetector
WriteCond            INFO Hit x = 2504.44 y = -8.0239 z = -2405.27 detector = DummyHitDetector
WriteCond            INFO Hit x = 2507.65 y = -13.7028 z = -2429.77 detector = DummyHitDetector
WriteCond            INFO Hit x = 2510.86 y = -19.3817 z = -2440.09 detector = DummyHitDetector
WriteCond            INFO Hit x = 2514.07 y = -25.0606 z = -2445.77 detector = DummyHitDetector
WriteCond            INFO Hit x = 2517.28 y = -30.7395 z = -2449.38 detector = DummyHitDetector
WriteCond            INFO Hit x = 2520.49 y = -36.4184 z = -2451.86 detector = DummyHitDetector
WriteCond            INFO Hit x = 2523.7 y = -42.0973 z = -2453.68 detector = DummyHitDetector
WriteCond            INFO Hit x = 2526.91 y = -47.7762 z = -2455.07 detector = DummyHitDetector
WriteCond            INFO Hit x = 2530.12 y = -53.4551 z = -2456.17 detector = DummyHitDetector
WriteCond            INFO registered all data
Stream1             DEBUG addItemObjects(2101,"*") called
Stream1             DEBUG            Key:*
Stream1             DEBUG  Added object 2101,"McEventInfo"
Stream1             DEBUG addItemObjects(9102,"MyHits") called
Stream1             DEBUG            Key:MyHits
Stream1             DEBUG  Added object 9102,"MyHits"
AthenaEventLoopMgr   INFO   ===>>>  done processing event #25, run #0 6 events processed so far  <<<===
AthenaEventLoopMgr   INFO   ===>>>  start processing event #26, run #0 6 events processed so far  <<<===
WriteData           DEBUG in execute()
WriteData            INFO EventInfo event: 26  run: 0
WriteData            INFO registered all data
WriteCond            INFO Hit x = 2601.23 y = -2.345 z = -2373.33 detector = DummyHitDetector
WriteCond            INFO Hit x = 2604.44 y = -8.0239 z = -2505.27 detector = DummyHitDetector
WriteCond            INFO Hit x = 2607.65 y = -13.7028 z = -2529.77 detector = DummyHitDetector
WriteCond            INFO Hit x = 2610.86 y = -19.3817 z = -2540.09 detector = DummyHitDetector
WriteCond            INFO Hit x = 2614.07 y = -25.0606 z = -2545.77 detector = DummyHitDetector
WriteCond            INFO Hit x = 2617.28 y = -30.7395 z = -2549.38 detector = DummyHitDetector
WriteCond            INFO Hit x = 2620.49 y = -36.4184 z = -2551.86 detector = DummyHitDetector
WriteCond            INFO Hit x = 2623.7 y = -42.0973 z = -2553.68 detector = DummyHitDetector
WriteCond            INFO Hit x = 2626.91 y = -47.7762 z = -2555.07 detector = DummyHitDetector
WriteCond            INFO Hit x = 2630.12 y = -53.4551 z = -2556.17 detector = DummyHitDetector
WriteCond            INFO registered all data
Stream1             DEBUG addItemObjects(2101,"*") called
Stream1             DEBUG            Key:*
Stream1             DEBUG  Added object 2101,"McEventInfo"
Stream1             DEBUG addItemObjects(9102,"MyHits") called
Stream1             DEBUG            Key:MyHits
Stream1             DEBUG  Added object 9102,"MyHits"
AthenaEventLoopMgr   INFO   ===>>>  done processing event #26, run #0 7 events processed so far  <<<===
AthenaEventLoopMgr   INFO   ===>>>  start processing event #27, run #0 7 events processed so far  <<<===
WriteData           DEBUG in execute()
WriteData            INFO EventInfo event: 27  run: 0
WriteData            INFO registered all data
WriteCond            INFO Hit x = 2701.23 y = -2.345 z = -2473.33 detector = DummyHitDetector
WriteCond            INFO Hit x = 2704.44 y = -8.0239 z = -2605.27 detector = DummyHitDetector
WriteCond            INFO Hit x = 2707.65 y = -13.7028 z = -2629.77 detector = DummyHitDetector
WriteCond            INFO Hit x = 2710.86 y = -19.3817 z = -2640.09 detector = DummyHitDetector
WriteCond            INFO Hit x = 2714.07 y = -25.0606 z = -2645.77 detector = DummyHitDetector
WriteCond            INFO Hit x = 2717.28 y = -30.7395 z = -2649.38 detector = DummyHitDetector
WriteCond            INFO Hit x = 2720.49 y = -36.4184 z = -2651.86 detector = DummyHitDetector
WriteCond            INFO Hit x = 2723.7 y = -42.0973 z = -2653.68 detector = DummyHitDetector
WriteCond            INFO Hit x = 2726.91 y = -47.7762 z = -2655.07 detector = DummyHitDetector
WriteCond            INFO Hit x = 2730.12 y = -53.4551 z = -2656.17 detector = DummyHitDetector
WriteCond            INFO registered all data
Stream1             DEBUG addItemObjects(2101,"*") called
Stream1             DEBUG            Key:*
Stream1             DEBUG  Added object 2101,"McEventInfo"
Stream1             DEBUG addItemObjects(9102,"MyHits") called
Stream1             DEBUG            Key:MyHits
Stream1             DEBUG  Added object 9102,"MyHits"
AthenaEventLoopMgr   INFO   ===>>>  done processing event #27, run #0 8 events processed so far  <<<===
AthenaEventLoopMgr   INFO   ===>>>  start processing event #28, run #0 8 events processed so far  <<<===
WriteData           DEBUG in execute()
WriteData            INFO EventInfo event: 28  run: 0
WriteData            INFO registered all data
WriteCond            INFO Hit x = 2801.23 y = -2.345 z = -2573.33 detector = DummyHitDetector
WriteCond            INFO Hit x = 2804.44 y = -8.0239 z = -2705.27 detector = DummyHitDetector
WriteCond            INFO Hit x = 2807.65 y = -13.7028 z = -2729.77 detector = DummyHitDetector
WriteCond            INFO Hit x = 2810.86 y = -19.3817 z = -2740.09 detector = DummyHitDetector
WriteCond            INFO Hit x = 2814.07 y = -25.0606 z = -2745.77 detector = DummyHitDetector
WriteCond            INFO Hit x = 2817.28 y = -30.7395 z = -2749.38 detector = DummyHitDetector
WriteCond            INFO Hit x = 2820.49 y = -36.4184 z = -2751.86 detector = DummyHitDetector
WriteCond            INFO Hit x = 2823.7 y = -42.0973 z = -2753.68 detector = DummyHitDetector
WriteCond            INFO Hit x = 2826.91 y = -47.7762 z = -2755.07 detector = DummyHitDetector
WriteCond            INFO Hit x = 2830.12 y = -53.4551 z = -2756.17 detector = DummyHitDetector
WriteCond            INFO registered all data
Stream1             DEBUG addItemObjects(2101,"*") called
Stream1             DEBUG            Key:*
Stream1             DEBUG  Added object 2101,"McEventInfo"
Stream1             DEBUG addItemObjects(9102,"MyHits") called
Stream1             DEBUG            Key:MyHits
Stream1             DEBUG  Added object 9102,"MyHits"
AthenaEventLoopMgr   INFO   ===>>>  done processing event #28, run #0 9 events processed so far  <<<===
AthenaEventLoopMgr   INFO   ===>>>  start processing event #29, run #0 9 events processed so far  <<<===
WriteData           DEBUG in execute()
WriteData            INFO EventInfo event: 29  run: 0
WriteData            INFO registered all data
WriteCond            INFO Hit x = 2901.23 y = -2.345 z = -2673.33 detector = DummyHitDetector
WriteCond            INFO Hit x = 2904.44 y = -8.0239 z = -2805.27 detector = DummyHitDetector
WriteCond            INFO Hit x = 2907.65 y = -13.7028 z = -2829.77 detector = DummyHitDetector
WriteCond            INFO Hit x = 2910.86 y = -19.3817 z = -2840.09 detector = DummyHitDetector
WriteCond            INFO Hit x = 2914.07 y = -25.0606 z = -2845.77 detector = DummyHitDetector
WriteCond            INFO Hit x = 2917.28 y = -30.7395 z = -2849.38 detector = DummyHitDetector
WriteCond            INFO Hit x = 2920.49 y = -36.4184 z = -2851.86 detector = DummyHitDetector
WriteCond            INFO Hit x = 2923.7 y = -42.0973 z = -2853.68 detector = DummyHitDetector
WriteCond            INFO Hit x = 2926.91 y = -47.7762 z = -2855.07 detector = DummyHitDetector
WriteCond            INFO Hit x = 2930.12 y = -53.4551 z = -2856.17 detector = DummyHitDetector
WriteCond            INFO registered all data
Stream1             DEBUG addItemObjects(2101,"*") called
Stream1             DEBUG            Key:*
Stream1             DEBUG  Added object 2101,"McEventInfo"
Stream1             DEBUG addItemObjects(9102,"MyHits") called
Stream1             DEBUG            Key:MyHits
Stream1             DEBUG  Added object 9102,"MyHits"
AthenaEventLoopMgr   INFO   ===>>>  done processing event #29, run #0 10 events processed so far  <<<===
AthenaEventLoopMgr   INFO   ===>>>  start processing event #30, run #0 10 events processed so far  <<<===
WriteData           DEBUG in execute()
WriteData            INFO EventInfo event: 30  run: 0
WriteData            INFO registered all data
WriteCond            INFO Hit x = 3001.23 y = -2.345 z = -2773.33 detector = DummyHitDetector
WriteCond            INFO Hit x = 3004.44 y = -8.0239 z = -2905.27 detector = DummyHitDetector
WriteCond            INFO Hit x = 3007.65 y = -13.7028 z = -2929.77 detector = DummyHitDetector
WriteCond            INFO Hit x = 3010.86 y = -19.3817 z = -2940.09 detector = DummyHitDetector
WriteCond            INFO Hit x = 3014.07 y = -25.0606 z = -2945.77 detector = DummyHitDetector
WriteCond            INFO Hit x = 3017.28 y = -30.7395 z = -2949.38 detector = DummyHitDetector
WriteCond            INFO Hit x = 3020.49 y = -36.4184 z = -2951.86 detector = DummyHitDetector
WriteCond            INFO Hit x = 3023.7 y = -42.0973 z = -2953.68 detector = DummyHitDetector
WriteCond            INFO Hit x = 3026.91 y = -47.7762 z = -2955.07 detector = DummyHitDetector
WriteCond            INFO Hit x = 3030.12 y = -53.4551 z = -2956.17 detector = DummyHitDetector
WriteCond            INFO registered all data
Stream1             DEBUG addItemObjects(2101,"*") called
Stream1             DEBUG            Key:*
Stream1             DEBUG  Added object 2101,"McEventInfo"
Stream1             DEBUG addItemObjects(9102,"MyHits") called
Stream1             DEBUG            Key:MyHits
Stream1             DEBUG  Added object 9102,"MyHits"
AthenaEventLoopMgr   INFO   ===>>>  done processing event #30, run #0 11 events processed so far  <<<===
AthenaEventLoopMgr   INFO   ===>>>  start processing event #31, run #0 11 events processed so far  <<<===
WriteData           DEBUG in execute()
WriteData            INFO EventInfo event: 31  run: 0
WriteData            INFO registered all data
WriteCond            INFO Hit x = 3101.23 y = -2.345 z = -2873.33 detector = DummyHitDetector
WriteCond            INFO Hit x = 3104.44 y = -8.0239 z = -3005.27 detector = DummyHitDetector
WriteCond            INFO Hit x = 3107.65 y = -13.7028 z = -3029.77 detector = DummyHitDetector
WriteCond            INFO Hit x = 3110.86 y = -19.3817 z = -3040.09 detector = DummyHitDetector
WriteCond            INFO Hit x = 3114.07 y = -25.0606 z = -3045.77 detector = DummyHitDetector
WriteCond            INFO Hit x = 3117.28 y = -30.7395 z = -3049.38 detector = DummyHitDetector
WriteCond            INFO Hit x = 3120.49 y = -36.4184 z = -3051.86 detector = DummyHitDetector
WriteCond            INFO Hit x = 3123.7 y = -42.0973 z = -3053.68 detector = DummyHitDetector
WriteCond            INFO Hit x = 3126.91 y = -47.7762 z = -3055.07 detector = DummyHitDetector
WriteCond            INFO Hit x = 3130.12 y = -53.4551 z = -3056.17 detector = DummyHitDetector
WriteCond            INFO registered all data
Stream1             DEBUG addItemObjects(2101,"*") called
Stream1             DEBUG            Key:*
Stream1             DEBUG  Added object 2101,"McEventInfo"
Stream1             DEBUG addItemObjects(9102,"MyHits") called
Stream1             DEBUG            Key:MyHits
Stream1             DEBUG  Added object 9102,"MyHits"
AthenaEventLoopMgr   INFO   ===>>>  done processing event #31, run #0 12 events processed so far  <<<===
AthenaEventLoopMgr   INFO   ===>>>  start processing event #32, run #0 12 events processed so far  <<<===
WriteData           DEBUG in execute()
WriteData            INFO EventInfo event: 32  run: 0
WriteData            INFO registered all data
WriteCond            INFO Hit x = 3201.23 y = -2.345 z = -2973.33 detector = DummyHitDetector
WriteCond            INFO Hit x = 3204.44 y = -8.0239 z = -3105.27 detector = DummyHitDetector
WriteCond            INFO Hit x = 3207.65 y = -13.7028 z = -3129.77 detector = DummyHitDetector
WriteCond            INFO Hit x = 3210.86 y = -19.3817 z = -3140.09 detector = DummyHitDetector
WriteCond            INFO Hit x = 3214.07 y = -25.0606 z = -3145.77 detector = DummyHitDetector
WriteCond            INFO Hit x = 3217.28 y = -30.7395 z = -3149.38 detector = DummyHitDetector
WriteCond            INFO Hit x = 3220.49 y = -36.4184 z = -3151.86 detector = DummyHitDetector
WriteCond            INFO Hit x = 3223.7 y = -42.0973 z = -3153.68 detector = DummyHitDetector
WriteCond            INFO Hit x = 3226.91 y = -47.7762 z = -3155.07 detector = DummyHitDetector
WriteCond            INFO Hit x = 3230.12 y = -53.4551 z = -3156.17 detector = DummyHitDetector
WriteCond            INFO registered all data
Stream1             DEBUG addItemObjects(2101,"*") called
Stream1             DEBUG            Key:*
Stream1             DEBUG  Added object 2101,"McEventInfo"
Stream1             DEBUG addItemObjects(9102,"MyHits") called
Stream1             DEBUG            Key:MyHits
Stream1             DEBUG  Added object 9102,"MyHits"
AthenaEventLoopMgr   INFO   ===>>>  done processing event #32, run #0 13 events processed so far  <<<===
AthenaEventLoopMgr   INFO   ===>>>  start processing event #33, run #0 13 events processed so far  <<<===
WriteData           DEBUG in execute()
WriteData            INFO EventInfo event: 33  run: 0
WriteData            INFO registered all data
WriteCond            INFO Hit x = 3301.23 y = -2.345 z = -3073.33 detector = DummyHitDetector
WriteCond            INFO Hit x = 3304.44 y = -8.0239 z = -3205.27 detector = DummyHitDetector
WriteCond            INFO Hit x = 3307.65 y = -13.7028 z = -3229.77 detector = DummyHitDetector
WriteCond            INFO Hit x = 3310.86 y = -19.3817 z = -3240.09 detector = DummyHitDetector
WriteCond            INFO Hit x = 3314.07 y = -25.0606 z = -3245.77 detector = DummyHitDetector
WriteCond            INFO Hit x = 3317.28 y = -30.7395 z = -3249.38 detector = DummyHitDetector
WriteCond            INFO Hit x = 3320.49 y = -36.4184 z = -3251.86 detector = DummyHitDetector
WriteCond            INFO Hit x = 3323.7 y = -42.0973 z = -3253.68 detector = DummyHitDetector
WriteCond            INFO Hit x = 3326.91 y = -47.7762 z = -3255.07 detector = DummyHitDetector
WriteCond            INFO Hit x = 3330.12 y = -53.4551 z = -3256.17 detector = DummyHitDetector
WriteCond            INFO registered all data
Stream1             DEBUG addItemObjects(2101,"*") called
Stream1             DEBUG            Key:*
Stream1             DEBUG  Added object 2101,"McEventInfo"
Stream1             DEBUG addItemObjects(9102,"MyHits") called
Stream1             DEBUG            Key:MyHits
Stream1             DEBUG  Added object 9102,"MyHits"
AthenaEventLoopMgr   INFO   ===>>>  done processing event #33, run #0 14 events processed so far  <<<===
AthenaEventLoopMgr   INFO   ===>>>  start processing event #34, run #0 14 events processed so far  <<<===
WriteData           DEBUG in execute()
WriteData            INFO EventInfo event: 34  run: 0
WriteData            INFO registered all data
WriteCond            INFO Hit x = 3401.23 y = -2.345 z = -3173.33 detector = DummyHitDetector
WriteCond            INFO Hit x = 3404.44 y = -8.0239 z = -3305.27 detector = DummyHitDetector
WriteCond            INFO Hit x = 3407.65 y = -13.7028 z = -3329.77 detector = DummyHitDetector
WriteCond            INFO Hit x = 3410.86 y = -19.3817 z = -3340.09 detector = DummyHitDetector
WriteCond            INFO Hit x = 3414.07 y = -25.0606 z = -3345.77 detector = DummyHitDetector
WriteCond            INFO Hit x = 3417.28 y = -30.7395 z = -3349.38 detector = DummyHitDetector
WriteCond            INFO Hit x = 3420.49 y = -36.4184 z = -3351.86 detector = DummyHitDetector
WriteCond            INFO Hit x = 3423.7 y = -42.0973 z = -3353.68 detector = DummyHitDetector
WriteCond            INFO Hit x = 3426.91 y = -47.7762 z = -3355.07 detector = DummyHitDetector
WriteCond            INFO Hit x = 3430.12 y = -53.4551 z = -3356.17 detector = DummyHitDetector
WriteCond            INFO registered all data
Stream1             DEBUG addItemObjects(2101,"*") called
Stream1             DEBUG            Key:*
Stream1             DEBUG  Added object 2101,"McEventInfo"
Stream1             DEBUG addItemObjects(9102,"MyHits") called
Stream1             DEBUG            Key:MyHits
Stream1             DEBUG  Added object 9102,"MyHits"
AthenaEventLoopMgr   INFO   ===>>>  done processing event #34, run #0 15 events processed so far  <<<===
AthenaEventLoopMgr   INFO   ===>>>  start processing event #35, run #0 15 events processed so far  <<<===
WriteData           DEBUG in execute()
WriteData            INFO EventInfo event: 35  run: 0
WriteData            INFO registered all data
WriteCond            INFO Hit x = 3501.23 y = -2.345 z = -3273.33 detector = DummyHitDetector
WriteCond            INFO Hit x = 3504.44 y = -8.0239 z = -3405.27 detector = DummyHitDetector
WriteCond            INFO Hit x = 3507.65 y = -13.7028 z = -3429.77 detector = DummyHitDetector
WriteCond            INFO Hit x = 3510.86 y = -19.3817 z = -3440.09 detector = DummyHitDetector
WriteCond            INFO Hit x = 3514.07 y = -25.0606 z = -3445.77 detector = DummyHitDetector
WriteCond            INFO Hit x = 3517.28 y = -30.7395 z = -3449.38 detector = DummyHitDetector
WriteCond            INFO Hit x = 3520.49 y = -36.4184 z = -3451.86 detector = DummyHitDetector
WriteCond            INFO Hit x = 3523.7 y = -42.0973 z = -3453.68 detector = DummyHitDetector
WriteCond            INFO Hit x = 3526.91 y = -47.7762 z = -3455.07 detector = DummyHitDetector
WriteCond            INFO Hit x = 3530.12 y = -53.4551 z = -3456.17 detector = DummyHitDetector
WriteCond            INFO registered all data
Stream1             DEBUG addItemObjects(2101,"*") called
Stream1             DEBUG            Key:*
Stream1             DEBUG  Added object 2101,"McEventInfo"
Stream1             DEBUG addItemObjects(9102,"MyHits") called
Stream1             DEBUG            Key:MyHits
Stream1             DEBUG  Added object 9102,"MyHits"
AthenaEventLoopMgr   INFO   ===>>>  done processing event #35, run #0 16 events processed so far  <<<===
AthenaEventLoopMgr   INFO   ===>>>  start processing event #36, run #0 16 events processed so far  <<<===
WriteData           DEBUG in execute()
WriteData            INFO EventInfo event: 36  run: 0
WriteData            INFO registered all data
WriteCond            INFO Hit x = 3601.23 y = -2.345 z = -3373.33 detector = DummyHitDetector
WriteCond            INFO Hit x = 3604.44 y = -8.0239 z = -3505.27 detector = DummyHitDetector
WriteCond            INFO Hit x = 3607.65 y = -13.7028 z = -3529.77 detector = DummyHitDetector
WriteCond            INFO Hit x = 3610.86 y = -19.3817 z = -3540.09 detector = DummyHitDetector
WriteCond            INFO Hit x = 3614.07 y = -25.0606 z = -3545.77 detector = DummyHitDetector
WriteCond            INFO Hit x = 3617.28 y = -30.7395 z = -3549.38 detector = DummyHitDetector
WriteCond            INFO Hit x = 3620.49 y = -36.4184 z = -3551.86 detector = DummyHitDetector
WriteCond            INFO Hit x = 3623.7 y = -42.0973 z = -3553.68 detector = DummyHitDetector
WriteCond            INFO Hit x = 3626.91 y = -47.7762 z = -3555.07 detector = DummyHitDetector
WriteCond            INFO Hit x = 3630.12 y = -53.4551 z = -3556.17 detector = DummyHitDetector
WriteCond            INFO registered all data
Stream1             DEBUG addItemObjects(2101,"*") called
Stream1             DEBUG            Key:*
Stream1             DEBUG  Added object 2101,"McEventInfo"
Stream1             DEBUG addItemObjects(9102,"MyHits") called
Stream1             DEBUG            Key:MyHits
Stream1             DEBUG  Added object 9102,"MyHits"
AthenaEventLoopMgr   INFO   ===>>>  done processing event #36, run #0 17 events processed so far  <<<===
AthenaEventLoopMgr   INFO   ===>>>  start processing event #37, run #0 17 events processed so far  <<<===
WriteData           DEBUG in execute()
WriteData            INFO EventInfo event: 37  run: 0
WriteData            INFO registered all data
WriteCond            INFO Hit x = 3701.23 y = -2.345 z = -3473.33 detector = DummyHitDetector
WriteCond            INFO Hit x = 3704.44 y = -8.0239 z = -3605.27 detector = DummyHitDetector
WriteCond            INFO Hit x = 3707.65 y = -13.7028 z = -3629.77 detector = DummyHitDetector
WriteCond            INFO Hit x = 3710.86 y = -19.3817 z = -3640.09 detector = DummyHitDetector
WriteCond            INFO Hit x = 3714.07 y = -25.0606 z = -3645.77 detector = DummyHitDetector
WriteCond            INFO Hit x = 3717.28 y = -30.7395 z = -3649.38 detector = DummyHitDetector
WriteCond            INFO Hit x = 3720.49 y = -36.4184 z = -3651.86 detector = DummyHitDetector
WriteCond            INFO Hit x = 3723.7 y = -42.0973 z = -3653.68 detector = DummyHitDetector
WriteCond            INFO Hit x = 3726.91 y = -47.7762 z = -3655.07 detector = DummyHitDetector
WriteCond            INFO Hit x = 3730.12 y = -53.4551 z = -3656.17 detector = DummyHitDetector
WriteCond            INFO registered all data
Stream1             DEBUG addItemObjects(2101,"*") called
Stream1             DEBUG            Key:*
Stream1             DEBUG  Added object 2101,"McEventInfo"
Stream1             DEBUG addItemObjects(9102,"MyHits") called
Stream1             DEBUG            Key:MyHits
Stream1             DEBUG  Added object 9102,"MyHits"
AthenaEventLoopMgr   INFO   ===>>>  done processing event #37, run #0 18 events processed so far  <<<===
AthenaEventLoopMgr   INFO   ===>>>  start processing event #38, run #0 18 events processed so far  <<<===
WriteData           DEBUG in execute()
WriteData            INFO EventInfo event: 38  run: 0
WriteData            INFO registered all data
WriteCond            INFO Hit x = 3801.23 y = -2.345 z = -3573.33 detector = DummyHitDetector
WriteCond            INFO Hit x = 3804.44 y = -8.0239 z = -3705.27 detector = DummyHitDetector
WriteCond            INFO Hit x = 3807.65 y = -13.7028 z = -3729.77 detector = DummyHitDetector
WriteCond            INFO Hit x = 3810.86 y = -19.3817 z = -3740.09 detector = DummyHitDetector
WriteCond            INFO Hit x = 3814.07 y = -25.0606 z = -3745.77 detector = DummyHitDetector
WriteCond            INFO Hit x = 3817.28 y = -30.7395 z = -3749.38 detector = DummyHitDetector
WriteCond            INFO Hit x = 3820.49 y = -36.4184 z = -3751.86 detector = DummyHitDetector
WriteCond            INFO Hit x = 3823.7 y = -42.0973 z = -3753.68 detector = DummyHitDetector
WriteCond            INFO Hit x = 3826.91 y = -47.7762 z = -3755.07 detector = DummyHitDetector
WriteCond            INFO Hit x = 3830.12 y = -53.4551 z = -3756.17 detector = DummyHitDetector
WriteCond            INFO registered all data
Stream1             DEBUG addItemObjects(2101,"*") called
Stream1             DEBUG            Key:*
Stream1             DEBUG  Added object 2101,"McEventInfo"
Stream1             DEBUG addItemObjects(9102,"MyHits") called
Stream1             DEBUG            Key:MyHits
Stream1             DEBUG  Added object 9102,"MyHits"
AthenaEventLoopMgr   INFO   ===>>>  done processing event #38, run #0 19 events processed so far  <<<===
AthenaEventLoopMgr   INFO   ===>>>  start processing event #39, run #0 19 events processed so far  <<<===
WriteData           DEBUG in execute()
WriteData            INFO EventInfo event: 39  run: 0
WriteData            INFO registered all data
WriteCond            INFO Hit x = 3901.23 y = -2.345 z = -3673.33 detector = DummyHitDetector
WriteCond            INFO Hit x = 3904.44 y = -8.0239 z = -3805.27 detector = DummyHitDetector
WriteCond            INFO Hit x = 3907.65 y = -13.7028 z = -3829.77 detector = DummyHitDetector
WriteCond            INFO Hit x = 3910.86 y = -19.3817 z = -3840.09 detector = DummyHitDetector
WriteCond            INFO Hit x = 3914.07 y = -25.0606 z = -3845.77 detector = DummyHitDetector
WriteCond            INFO Hit x = 3917.28 y = -30.7395 z = -3849.38 detector = DummyHitDetector
WriteCond            INFO Hit x = 3920.49 y = -36.4184 z = -3851.86 detector = DummyHitDetector
WriteCond            INFO Hit x = 3923.7 y = -42.0973 z = -3853.68 detector = DummyHitDetector
WriteCond            INFO Hit x = 3926.91 y = -47.7762 z = -3855.07 detector = DummyHitDetector
WriteCond            INFO Hit x = 3930.12 y = -53.4551 z = -3856.17 detector = DummyHitDetector
WriteCond            INFO registered all data
Stream1             DEBUG addItemObjects(2101,"*") called
Stream1             DEBUG            Key:*
Stream1             DEBUG  Added object 2101,"McEventInfo"
Stream1             DEBUG addItemObjects(9102,"MyHits") called
Stream1             DEBUG            Key:MyHits
Stream1             DEBUG  Added object 9102,"MyHits"
AthenaEventLoopMgr   INFO   ===>>>  done processing event #39, run #0 20 events processed so far  <<<===
WriteCond            INFO in finalize()
WriteCond            INFO Pedestal x = 593136 y = -5580.01 z = -575208 string = <..........o..........o..........o..........o..........o..........o..........o..........o..........o..........o..........o..........o..........o..........o..........o..........o..........o..........o..........o..........o>
Stream1             DEBUG handle() incident type: MetaDataStop
Stream1             DEBUG addItemObjects(9102,"PedestalWriteData") called
Stream1             DEBUG            Key:PedestalWriteData
Stream1             DEBUG  Added object 9102,"PedestalWriteData"
Stream1             DEBUG addItemObjects(167728019,"Stream1") called
Stream1             DEBUG            Key:Stream1
Stream1             DEBUG  Added object 167728019,"Stream1"
Stream1             DEBUG addItemObjects(1316383046,"*") called
Stream1             DEBUG            Key:*
SimplePoolFile5.root Debug --> Access   DbContainer  CREA/UPDA [ROOT_Tree] MetaData(ExampleHitContainer_p1/PedestalWriteData)
???? Debug Opened container MetaData(ExampleHitContainer_p1/PedestalWriteData) of type ROOT_Tree
SimplePoolFile5.root Debug --> Access   DbContainer  CREA/UPDA [ROOT_Tree] MetaData(EventStreamInfo_p3/Stream1)
???? Debug Opened container MetaData(EventStreamInfo_p3/Stream1) of type ROOT_Tree
SimplePoolFile5.root Debug --> Access   DbContainer  CREA/UPDA [ROOT_Tree] MetaDataHdrForm(DataHeaderForm)
???? Debug Opened container MetaDataHdrForm(DataHeaderForm) of type ROOT_Tree
SimplePoolFile5.root Debug --> Access   DbContainer  CREA/UPDA [ROOT_Tree] MetaDataHdr(DataHeader)
???? Debug Opened container MetaDataHdr(DataHeader) of type ROOT_Tree
Stream1              INFO Records written: 21
Stream1             DEBUG Leaving handle
Domain[ROOT_All] Info ->  Deaccess DbDatabase   UPDATE    [ROOT_All] ????
Domain[ROOT_All] Info >   Deaccess DbDomain     UPDATE    [ROOT_All] 
ApplicationMgr       INFO Application Manager Stopped successfully
WriteData            INFO in finalize()
AthAlgSeq            INFO Finalizing AthAlgSeq...
WriteData           DEBUG Calling destructor
AthOutSeq            INFO Finalizing AthOutSeq...
AthRegSeq            INFO Finalizing AthRegSeq...
AthMasterSeq         INFO Finalizing AthMasterSeq...
Stream1             DEBUG finalize: Optimize output
Stream1             DEBUG finalize: end optimize output
EventSelector        INFO finalize
DecisionSvc          INFO -- OUTPUT STREAM EVENT OVERLAP SUMMARY --
DecisionSvc          INFO List of registered 1 Streams: Stream1 
DecisionSvc          INFO Finalized successfully.
AthenaPoolCnvSvc    DEBUG releasing all workers
XMLFileCatalog Debug There were no updates in the catalog
PoolXMLFileCatalog Info XercesC termination number 0
PoolSvc              INFO I/O finalization...
AthDictLoaderSvc     INFO in finalize...
ToolSvc              INFO Removing all tools created by ToolSvc
*****Chrono*****     INFO ****************************************************************************************************
*****Chrono*****     INFO  The Final CPU consumption ( Chrono ) Table (ordered)
*****Chrono*****     INFO ****************************************************************************************************
fRep_ALL             INFO Time User   : Tot=    0 [us] Ave/Min/Max=    0(+-    0)/    0/    0 [us] #= 83
commitOutput         INFO Time User   : Tot=    3 [ms] Ave/Min/Max=0.143(+-0.467)/    0/    2 [ms] #= 21
cRepR_ALL            INFO Time User   : Tot=   15 [ms] Ave/Min/Max=0.121(+-0.747)/    0/    8 [ms] #=124
cRep_ALL             INFO Time User   : Tot=   41 [ms] Ave/Min/Max=0.494(+- 2.47)/    0/   19 [ms] #= 83
ChronoStatSvc        INFO Time User   : Tot= 1.06  [s]                                             #=  1
*****Chrono*****     INFO ****************************************************************************************************
ChronoStatSvc.f...   INFO  Service finalized successfully 
ApplicationMgr       INFO Application Manager Finalized successfully
ApplicationMgr       INFO Application Manager Terminated successfully
Athena               INFO leaving with code 0: "successful run"
CORAL/Services/ConnectionService Info Deleting the ConnectionPool
